{
  "hash": "03dec51f",
  "configHash": "2d96f947",
  "lockfileHash": "64586800",
  "browserHash": "3115f77b",
  "optimized": {
    "vue": {
      "src": "../../../../../node_modules/vue/dist/vue.runtime.esm-bundler.js",
      "file": "vue.js",
      "fileHash": "d3ed70d6",
      "needsInterop": false
    },
    "vitepress > @vue/devtools-api": {
      "src": "../../../../../node_modules/@vue/devtools-api/lib/esm/index.js",
      "file": "vitepress___@vue_devtools-api.js",
      "fileHash": "246e6bea",
      "needsInterop": false
    },
    "vitepress > @vueuse/core": {
      "src": "../../../../../node_modules/@vueuse/core/index.mjs",
      "file": "vitepress___@vueuse_core.js",
      "fileHash": "3f33091a",
      "needsInterop": false
    },
    "vitepress > @vueuse/integrations/useFocusTrap": {
      "src": "../../../../../node_modules/@vueuse/integrations/useFocusTrap.mjs",
      "file": "vitepress___@vueuse_integrations_useFocusTrap.js",
      "fileHash": "f447c8d8",
      "needsInterop": false
    },
    "vitepress > mark.js/src/vanilla.js": {
      "src": "../../../../../node_modules/mark.js/src/vanilla.js",
      "file": "vitepress___mark__js_src_vanilla__js.js",
      "fileHash": "92593236",
      "needsInterop": false
    },
    "vitepress > minisearch": {
      "src": "../../../../../node_modules/minisearch/dist/es/index.js",
      "file": "vitepress___minisearch.js",
      "fileHash": "48c4474d",
      "needsInterop": false
    },
    "@theme/index": {
      "src": "../../../../../node_modules/vitepress/dist/client/theme-default/index.js",
      "file": "@theme_index.js",
      "fileHash": "52bce86a",
      "needsInterop": false
    }
  },
  "chunks": {
    "chunk-CCGLXEN6": {
      "file": "chunk-CCGLXEN6.js"
    },
    "chunk-GFG2Z2E4": {
      "file": "chunk-GFG2Z2E4.js"
    }
  }
}